<svg xmlns="http://www.w3.org/2000/svg" width="51.815" height="34.543" viewBox="0 0 51.815 34.543">
  <g id="credit-card_1_" data-name="credit-card (1)" transform="translate(0 0)">
    <g id="Group_470" data-name="Group 470" transform="translate(0 0)">
      <g id="Group_469" data-name="Group 469" transform="translate(0 0)">
        <path id="Path_572" data-name="Path 572" d="M46.418,85.333H5.4A5.4,5.4,0,0,0,0,90.73v23.749a5.4,5.4,0,0,0,5.4,5.4h41.02a5.4,5.4,0,0,0,5.4-5.4V90.73A5.4,5.4,0,0,0,46.418,85.333Zm3.238,29.146a3.242,3.242,0,0,1-3.238,3.238H5.4a3.242,3.242,0,0,1-3.238-3.238V90.73A3.242,3.242,0,0,1,5.4,87.492h41.02a3.242,3.242,0,0,1,3.238,3.238v23.749Z" transform="translate(0 -85.333)" fill="#c4122f"/>
      </g>
    </g>
    <g id="Group_472" data-name="Group 472" transform="translate(0 6.477)">
      <g id="Group_471" data-name="Group 471" transform="translate(0 0)">
        <path id="Path_573" data-name="Path 573" d="M50.736,149.333H1.08A1.08,1.08,0,0,0,0,150.412v6.477a1.08,1.08,0,0,0,1.08,1.079H50.736a1.08,1.08,0,0,0,1.08-1.079v-6.477A1.08,1.08,0,0,0,50.736,149.333Zm-1.079,6.477H2.159v-4.318h47.5v4.318Z" transform="translate(0 -149.333)" fill="#c4122f"/>
      </g>
    </g>
    <g id="Group_474" data-name="Group 474" transform="translate(6.477 21.59)">
      <g id="Group_473" data-name="Group 473" transform="translate(0 0)">
        <path id="Path_574" data-name="Path 574" d="M78.033,298.667H65.08a1.079,1.079,0,1,0,0,2.159H78.033a1.079,1.079,0,1,0,0-2.159Z" transform="translate(-64 -298.667)" fill="#c4122f"/>
      </g>
    </g>
    <g id="Group_476" data-name="Group 476" transform="translate(6.477 25.908)">
      <g id="Group_475" data-name="Group 475" transform="translate(0 0)">
        <path id="Path_575" data-name="Path 575" d="M78.033,341.333H65.08a1.08,1.08,0,0,0,0,2.159H78.033a1.08,1.08,0,0,0,0-2.159Z" transform="translate(-64 -341.333)" fill="#c4122f"/>
      </g>
    </g>
    <g id="Group_478" data-name="Group 478" transform="translate(36.702 19.431)">
      <g id="Group_477" data-name="Group 477" transform="translate(0 0)">
        <path id="Path_576" data-name="Path 576" d="M368.064,277.333h-2.159a3.242,3.242,0,0,0-3.238,3.238v2.159a3.242,3.242,0,0,0,3.238,3.238h2.159a3.242,3.242,0,0,0,3.238-3.238v-2.159A3.242,3.242,0,0,0,368.064,277.333Zm1.079,5.4a1.08,1.08,0,0,1-1.079,1.08h-2.159a1.08,1.08,0,0,1-1.079-1.08v-2.159a1.08,1.08,0,0,1,1.079-1.079h2.159a1.08,1.08,0,0,1,1.079,1.079Z" transform="translate(-362.667 -277.333)" fill="#c4122f"/>
      </g>
    </g>
  </g>
</svg>
