<svg xmlns="http://www.w3.org/2000/svg" width="378.108" height="172.981" viewBox="0 0 378.108 172.981">
  <path id="Path_692" data-name="Path 692" d="M677.767,907.529q-2.468-.159-4.943-.223a56.879,56.879,0,0,0-14.223,1.151,36.344,36.344,0,0,0-4.234,1.411,11.262,11.262,0,0,0-4.389,3.86l-.113.536a11.932,11.932,0,0,0-.815,1.26,14.026,14.026,0,0,0-.925,2.445c-3.868.725-7.494,1.1-10.943-.189-10.917-4.079-21.064-10.472-31.023-16.875-7.441-4.781-15.392-9.309-20.9-16.132-3.494-4.332-3.74-11.936-3.74-11.936l0,0q.187-.119.385-.227c.393-.026.985-.083.985-.083l-.023-.26-.068-.087c3.838-1.634,8.7-.989,12.989.268,3.909,1.143,7.513,5.17,12.125,5,2.607-.09,4.6-1.823,5.958-3.811a18.552,18.552,0,0,0,3.208-12.272c-.7-6.3-7.211-8.332-12.5-8.989-9.5-1.121-19.227-1.743-27.321,2.879-11.37,6.494-17.5,21.011-11.985,31.162,7.49,13.792,21.393,22.109,34.381,30.309,10.566,6.645,21.3,11.687,29.226,19.875,2.468,2.555,3.683,5.928,6.683,6.857,1.238.37,1.736-.808,2.7,2.34-.151.2-.313.408-.479.608a8.186,8.186,0,0,0-1.725,4.743s0,.136.008.355a3.188,3.188,0,0,0-.31,1.509c-.279,4.483,1.51,8.857,3.759,12.717a48.871,48.871,0,0,0,9.721,11.758c1.2,1.128,2.411,2.268,3.642,3.4,5.155,5.51,10.543,10.856,16.973,14.7,10.6,6.332,22.487,9.883,34.415,12.894,17.034,4.264,34.664,9.272,52.664,11.83,27.589,3.924,56.913,6.328,85.1,1.728,3.5-.57,6.939-1.344,10.343-2.234,17.891-3.445,36.215-8.336,53-16.306q3.475-1.523,6.879-3.211l.064-.03a106.469,106.469,0,0,0,12.072-7.524c.275-.2.558-.419.845-.638,5.559-3.291,11.925-5.977,14.823-11.5,3.139-5.985.011-11.313-4.347-12.23-8.566-1.808-17.717.362-26.645,1.06a22.336,22.336,0,0,1-6.366,0,50.4,50.4,0,0,0-12.785-.664c-6.626.321-12.841,1.464-21.222-.962-21.966-6.358-44.26-10.023-66.275-15.023-30.045-6.819-57.551-21.736-86.121-33.577-12.483-5.17-25.185-10.162-38.362-11.668Zm-25.5,15.056.068.027c-.038-.023.056.022.056.022.1.045.1.049.061.034l-.057-.022-.113-.049-.015,0h0c-.091-.042-.106-.049,0,0Zm-15.759,15.921a35.464,35.464,0,0,0-10.079-10.792c-15.226-11.3-32.638-19.9-46.415-32.989-5.177-4.917-11.517-11.053-10.856-17.321a22.982,22.982,0,0,1,12.087-17.313c5.77-3.057,12.7-2.872,19.34-2.2.868.083,1.736.155,2.6.238a14.114,14.114,0,0,1,7.849,3.362c.649,2.721-.815,8.4-3.347,9.555-1.506-.14-.879-.272-2.758-1.1-4.562-2.023-9.128-3.453-13.9-3.434-6.136.019-15.094,3.43-15.581,9.872-.219,2.89-.551,5.294.989,7.057l.1.113c1.155.188.668-.494.668-.494a4.67,4.67,0,0,1-.619-2.517,21.726,21.726,0,0,1,1.637-4.151,19.094,19.094,0,0,0,.5,4.86,26.47,26.47,0,0,0,6.117,10.709c.309.336.626.668.947.993.264.272.54.536.823.8,9.415,8.581,21.294,15.457,32.943,21.906,2.853,1.581,5.755,3.072,8.717,4.434,1.985.913,4,1.77,6.045,2.555,4.834,1.849,9.14,1.487,13.483.838a13.429,13.429,0,0,0,.317,4.755,6.065,6.065,0,0,0,.638,1.309,22.832,22.832,0,0,1,1.068,2.343,8.575,8.575,0,0,1-.045,2.3,9.711,9.711,0,0,0-3.74-3.528,19.113,19.113,0,0,0-8.766-2.027c-.14,0-.279-.007-.419,0s-.276,0-.415,0c0,0-.883.11.9.551,1.74.427,5.675,2.962,5.675,2.962,1.551,1.34,3.77,3.411,3.811,5.921.053,3.74-.056,1.706-.192,2.079a6.867,6.867,0,0,1,.042,1.26c-.381.6-.781,1.181-1.177,1.747-.264.011-.528.019-.8.019.011-.219.022-.43.045-.74.008-.125.023-.249.034-.374.06-.543.136-1.087.181-1.63.449-5.615-4.57-6.408-8.166-7.762-.464-.185.4,1.113-.747-.755-.057-.1-.113-.2-.17-.3-1.853-3.4-4.4-4.853-7.174-6.4-2.634-1.479-7.732-4.347-7.732-4.347l.007.306a12.415,12.415,0,0,0,3.774,2.789l1.577.883a23.821,23.821,0,0,1,6.973,6.566,6.25,6.25,0,0,0,1.159,2.589c1.46,2.06,1.264,1.053,2.2,1.46,1.777.766,3.728,1.2,4.74,2.555.208.279-.019-.555.3.649a6.059,6.059,0,0,1-.049,2.23C640.069,938.925,636.507,938.506,636.507,938.506Zm8.174,5.374c.17-.053,0,.909,0,0Zm50.7-25.264c29.74,10.155,57.268,26,87.053,35.766,26.951,8.838,55.887,11.815,83.853,19.774l1.056.306c10.51,3.045,21.211-.1,31.751,1.174a42.453,42.453,0,0,0,5.407.713c7.528.057,15-1.381,22.521-1.736a56.309,56.309,0,0,1,7.66.313,5.311,5.311,0,0,1-1.615,4.26,16.434,16.434,0,0,1-1.849,1.713l-.268-.034-1.227.751a11.773,11.773,0,0,1-.928.962c-2.66,1.623-5.562,2.86-8.128,4.623a100.61,100.61,0,0,1-36.713,16.362l-.521.113c-13.426,2.781-25.894,7.966-39.105,10.645-9.966,2.015-20.162,2.5-30.336,2.623-27.656.332-56.079-1.77-83.007-9.019-.845-.23-1.691-.453-2.536-.676.053-.049.106-.1.158-.155a.348.348,0,0,0,.023-.329l-.26.03c-.151.174.6.117-.547.287-12.139-3.166-24.4-5.664-36.305-9.547q-1.325-.43-2.638-.906a133.766,133.766,0,0,1-19.6-9.524,122.729,122.729,0,0,1-10.091-7.464c-.785-.63-1.611-1.31-2.389-1.958a45.245,45.245,0,0,1-10.072-13.94,24.556,24.556,0,0,1-1.155-2.977,33.911,33.911,0,0,1-1.207-4.577,1.581,1.581,0,0,0-.792-1.072l-1.8.166a30.392,30.392,0,0,1-.645-3.694,1.2,1.2,0,0,0,.079-.151c.736-1.14,2.457-1.74,3.5-2.879a9.293,9.293,0,0,0,.619-.77,12.563,12.563,0,0,0,5.208.46,21.206,21.206,0,0,0,2.487-.475c4.317-1.468,8.019-3.868,10.249-7.457a28.606,28.606,0,0,0,2.158-5.139,16.477,16.477,0,0,0-.291-8.264c-.521-1.668-.219,1.7-.256,2.079-.521,5-4.185,10.2-9.37,11.792-1.324.385-1.336.374-1.925.54,0,0-3.026.815-3.619,1.019-.336.109-.675.211-1.023.3a2.24,2.24,0,0,0,1.287-1.222,9.521,9.521,0,0,0,.6-2.559,28.734,28.734,0,0,0,1.4-3.5c1.128-3.49-.309-8.49,0-12.37l.015-.2c.121-.015.242-.03.362-.041,0,0,1.061,1.547,1.019,1.068a27.894,27.894,0,0,1,3.015,1.551,1.048,1.048,0,0,0,.17-.06,2.892,2.892,0,0,0,1.381-2.57,7.455,7.455,0,0,0-3.125-4.43c-.9-.6-.543-.339-.981-.513l-.377-.075a23.306,23.306,0,0,1,1.608-2.879c.694-1.057.388-.879.811-1.872a28.588,28.588,0,0,1,8.94-.868,111.269,111.269,0,0,1,12.245,1.539,91.219,91.219,0,0,1,15.894,4.193C693.907,918.087,694.148,918.2,695.382,918.615Z" transform="translate(-563.227 -851.575)" fill="#c4122f" opacity="0.06"/>
</svg>
